{
  "$schema": "https://docs.renovatebot.com/renovate-schema.json",
  "extends": [
    "config:base"
  ],
  "rangeStrategy": "update-lockfile",
  "prHourlyLimit": 20,
  "labels": ["dependencies"],
  "patch": {
    "enabled": false
  },
  "repositories": [
    "satdevo/renovate-project"
  ],
  "packageRules": [
    {
     "description": "Update dependencies from package.json",
      "matchFileNames": ["Apps/Web/package.json"],
      "groupName": "Web package.json changes"
    },
    {
     "description": "Update dependencies from package.json",
      "matchFileNames": ["Apps/Native/package.json"],
      "groupName": "Mobile package.json changes"
    }
  ],
  "enabledManagers": ["dockerfile", "npm"],
  "lockFileMaintenance": {
    "enabled": true
  }
}
